…
ℹ Use `spec()` to retrieve the full column specification for this data.
ℹ Specify the column types or set `show_col_types = FALSE` to quiet this message.
# A tibble: 35 × 8
   Z_effect ptsne .fitted .resid   .hat .sigma .cooksd .std.resid
      <dbl> <dbl>   <dbl>  <dbl>  <dbl>  <dbl>   <dbl>      <dbl>
 1    -7.60   385   -3.61  -4.00 0.0566   1.91 0.126       -2.05 
 2   -10.4    115   -7.13  -3.30 0.110    1.95 0.186       -1.74 
 3    -9.49   135   -6.87  -2.61 0.0916   1.98 0.0938      -1.36 
 4    -9.01   155   -6.61  -2.39 0.0759   1.99 0.0630      -1.24 
 5    -8.70   165   -6.48  -2.21 0.0689   2.00 0.0482      -1.14 
 6    -4.38   455   -2.69  -1.69 0.110    2.02 0.0487      -0.890
 7    -5.70   345   -4.13  -1.58 0.0387   2.02 0.0128      -0.799
 8    -8.43   125   -7.00  -1.42 0.100    2.02 0.0310      -0.745
 9    -7.47   195   -6.09  -1.38 0.0513   2.03 0.0134      -0.706
10    -5.31   355   -4.00  -1.31 0.0423   2.03 0.00982     -0.667
# ℹ 25 more rows
…
