…
ℹ Use `spec()` to retrieve the full column specification for this data.
ℹ Specify the column types or set `show_col_types = FALSE` to quiet this message.
# A tibble: 126 × 8
   Z_effect ptsne .fitted .resid    .hat .sigma .cooksd .std.resid
      <dbl> <dbl>   <dbl>  <dbl>   <dbl>  <dbl>   <dbl>      <dbl>
 1    -17.3  1145   -7.48  -9.81 0.0139    3.47  0.0541      -2.77
 2    -14.0  1245   -5.57  -8.46 0.0183    3.50  0.0534      -2.40
 3    -16.5  1075   -8.82  -7.67 0.0115    3.51  0.0273      -2.16
 4    -16.1  1065   -9.01  -7.13 0.0112    3.52  0.0230      -2.01
 5    -26.3   485  -20.1   -6.22 0.0151    3.53  0.0237      -1.76
 6    -19.3   845  -13.2   -6.11 0.00795   3.54  0.0119      -1.72
 7    -28.3   355  -22.6   -5.73 0.0215    3.54  0.0289      -1.62
 8    -15.3  1035   -9.58  -5.68 0.0105    3.54  0.0136      -1.60
 9    -13.6  1105   -8.24  -5.40 0.0125    3.55  0.0147      -1.52
10    -26.1   435  -21.0   -5.09 0.0173    3.55  0.0182      -1.44
# ℹ 116 more rows
…
